Development features of isoreader • Isoreader
…
This structure representation shows recognized control elements in <...> and data elements in {...} which are converted to text or numeric representation if the interpretation is unambiguous, or plain hexadecimal characters if the nature of the data cannot be determined with certainty. Because this function tries all possible control elements and data interpretations, it is quite slow and may take a while if run for large stretches of binary code (i.e. if the length parameter is very long).

For an overview of all the control elements that are currently consider, use the internal get_ctrl_blocks_config_df() function.

isoreader:::get_ctrl_blocks_config_df()
#> # A tibble: 26 × 3
#>    block    regexp                              hexadecimal                     
#>    <chr>    <chr>                               <chr>                           
#>  1 del-nl   "\x7f\x85"                          7f 85                           
#>  2 eop-nl   "܅"                                 dc 85                           
#>  3 0b-80    "\v\x80"                            0b 80                           
#>  4 e0-81    "\xe0\x81"                          e0 81                           
#>  5 ce-80    "\u0380"                            ce 80                           
#>  6 ce-8a    "Ί"                                 ce 8a                           
#>  7 ee-85    "\xee\x85"                          ee 85                           
#>  8 75-84    "u\x84"                             75 84                           
#>  9 ff-80    "\\x00\xff\x80\\x00"                5c 78 30 30 ff 80 5c 78 30 30   
#> 10 07-80-id "\x05\x80.\xff(\\x00|\x80|\xff){2}" 05 80 2e ff 28 5c 78 30 30 7c 8…
#> # … with 16 more rows

Additional information can be gleaned from the so-called control blocks, which are larger structural elements of Isodat binary files and are kept in a data frame within the binary object (again only available in debug mode).

bin$C_blocks
#> # A tibble: 107 × 5
#>    id1   id2   block                 start   end
#>    <chr> <chr> <chr>                 <int> <dbl>
#>  1 06    0b    CFileHeader               1    17
#>  2 01    0b    CTimeObject             182   198
#>  3 02    04    CStr                    241   250
#>  4 01    0a    CDataIndex              471   486
#>  5 01    11    CSeqLineIndexData       513   535
#>  6 03    05    CData                   588   598
#>  7 01    13    CDualInletBlockData    1133  1157
#>  8 01    10    CMeasurmentInfos       1240  1261
#>  9 01    15    CISLScriptMessageData  1324  1350
#> 10 01    11    CMeasurmentErrors      1945  1967
#> # … with 97 more rows
…
